RTL/sim/icarus/PipelinedCore_tb.vcd
$date
	Sun Nov 14 20:35:09 2021
$end
$version
	Icarus Verilog
$end
$timescale
	1ns
$end
$scope module PipelinedCore_tb $end
$scope module PPCTB $end
$scope module RegisterFilePPC $end
$var reg 32 ! \bank[0] [31:0] $end
$upscope $end
$upscope $end
$upscope $end
$scope module PipelinedCore_tb $end
$scope module PPCTB $end
$scope module RegisterFilePPC $end
$var reg 32 " \bank[1] [31:0] $end
$upscope $end
$upscope $end
$upscope $end
$scope module PipelinedCore_tb $end
$scope module PPCTB $end
$scope module RegisterFilePPC $end
$var reg 32 # \bank[2] [31:0] $end
$upscope $end
$upscope $end
$upscope $end
$scope module PipelinedCore_tb $end
$scope module PPCTB $end
$scope module RegisterFilePPC $end
$var reg 32 $ \bank[3] [31:0] $end
$upscope $end
$upscope $end
$upscope $end
$scope module PipelinedCore_tb $end
$scope module PPCTB $end
$scope module RegisterFilePPC $end
$var reg 32 % \bank[4] [31:0] $end
$upscope $end
$upscope $end
$upscope $end
$scope module PipelinedCore_tb $end
$scope module PPCTB $end
$scope module RegisterFilePPC $end
$var reg 32 & \bank[5] [31:0] $end
$upscope $end
$upscope $end
$upscope $end
$scope module PipelinedCore_tb $end
$scope module PPCTB $end
$scope module RegisterFilePPC $end
$var reg 32 ' \bank[6] [31:0] $end
$upscope $end
$upscope $end
$upscope $end
$scope module PipelinedCore_tb $end
$scope module PPCTB $end
$scope module RegisterFilePPC $end
$var reg 32 ( \bank[7] [31:0] $end
$upscope $end
$upscope $end
$upscope $end
$scope module PipelinedCore_tb $end
$scope module PPCTB $end
$scope module RegisterFilePPC $end
$var reg 32 ) \bank[8] [31:0] $end
$upscope $end
$upscope $end
$upscope $end
$scope module PipelinedCore_tb $end
$scope module PPCTB $end
$scope module RegisterFilePPC $end
$var reg 32 * \bank[9] [31:0] $end
$upscope $end
$upscope $end
$upscope $end
$scope module PipelinedCore_tb $end
$scope module PPCTB $end
$scope module RegisterFilePPC $end
$var reg 32 + \bank[10] [31:0] $end
$upscope $end
$upscope $end
$upscope $end
$scope module PipelinedCore_tb $end
$scope module PPCTB $end
$scope module RegisterFilePPC $end
$var reg 32 , \bank[11] [31:0] $end
$upscope $end
$upscope $end
$upscope $end
$scope module PipelinedCore_tb $end
$scope module PPCTB $end
$scope module RegisterFilePPC $end
$var reg 32 - \bank[12] [31:0] $end
$upscope $end
$upscope $end
$upscope $end
$scope module PipelinedCore_tb $end
$scope module PPCTB $end
$scope module RegisterFilePPC $end
$var reg 32 . \bank[13] [31:0] $end
$upscope $end
$upscope $end
$upscope $end
$scope module PipelinedCore_tb $end
$scope module PPCTB $end
$scope module RegisterFilePPC $end
$var reg 32 / \bank[14] [31:0] $end
$upscope $end
$upscope $end
$upscope $end
$scope module PipelinedCore_tb $end
$scope module PPCTB $end
$scope module RegisterFilePPC $end
$var reg 32 0 \bank[15] [31:0] $end
$upscope $end
$upscope $end
$upscope $end
$scope module PipelinedCore_tb $end
$scope module PPCTB $end
$scope module RegisterFilePPC $end
$var reg 32 1 \bank[16] [31:0] $end
$upscope $end
$upscope $end
$upscope $end
$scope module PipelinedCore_tb $end
$scope module PPCTB $end
$scope module RegisterFilePPC $end
$var reg 32 2 \bank[17] [31:0] $end
$upscope $end
$upscope $end
$upscope $end
$scope module PipelinedCore_tb $end
$scope module PPCTB $end
$scope module RegisterFilePPC $end
$var reg 32 3 \bank[18] [31:0] $end
$upscope $end
$upscope $end
$upscope $end
$scope module PipelinedCore_tb $end
$scope module PPCTB $end
$scope module RegisterFilePPC $end
$var reg 32 4 \bank[19] [31:0] $end
$upscope $end
$upscope $end
$upscope $end
$scope module PipelinedCore_tb $end
$scope module PPCTB $end
$scope module RegisterFilePPC $end
$var reg 32 5 \bank[20] [31:0] $end
$upscope $end
$upscope $end
$upscope $end
$scope module PipelinedCore_tb $end
$scope module PPCTB $end
$scope module RegisterFilePPC $end
$var reg 32 6 \bank[21] [31:0] $end
$upscope $end
$upscope $end
$upscope $end
$scope module PipelinedCore_tb $end
$scope module PPCTB $end
$scope module RegisterFilePPC $end
$var reg 32 7 \bank[22] [31:0] $end
$upscope $end
$upscope $end
$upscope $end
$scope module PipelinedCore_tb $end
$scope module PPCTB $end
$scope module RegisterFilePPC $end
$var reg 32 8 \bank[23] [31:0] $end
$upscope $end
$upscope $end
$upscope $end
$scope module PipelinedCore_tb $end
$scope module PPCTB $end
$scope module RegisterFilePPC $end
$var reg 32 9 \bank[24] [31:0] $end
$upscope $end
$upscope $end
$upscope $end
$scope module PipelinedCore_tb $end
$scope module PPCTB $end
$scope module RegisterFilePPC $end
$var reg 32 : \bank[25] [31:0] $end
$upscope $end
$upscope $end
$upscope $end
$scope module PipelinedCore_tb $end
$scope module PPCTB $end
$scope module RegisterFilePPC $end
$var reg 32 ; \bank[26] [31:0] $end
$upscope $end
$upscope $end
$upscope $end
$scope module PipelinedCore_tb $end
$scope module PPCTB $end
$scope module RegisterFilePPC $end
$var reg 32 < \bank[27] [31:0] $end
$upscope $end
$upscope $end
$upscope $end
$scope module PipelinedCore_tb $end
$scope module PPCTB $end
$scope module RegisterFilePPC $end
$var reg 32 = \bank[28] [31:0] $end
$upscope $end
$upscope $end
$upscope $end
$scope module PipelinedCore_tb $end
$scope module PPCTB $end
$scope module RegisterFilePPC $end
$var reg 32 > \bank[29] [31:0] $end
$upscope $end
$upscope $end
$upscope $end
$scope module PipelinedCore_tb $end
$scope module PPCTB $end
$scope module RegisterFilePPC $end
$var reg 32 ? \bank[30] [31:0] $end
$upscope $end
$upscope $end
$upscope $end
$scope module PipelinedCore_tb $end
$scope module PPCTB $end
$scope module RegisterFilePPC $end
$var reg 32 @ \bank[31] [31:0] $end
$upscope $end
$upscope $end
$upscope $end
$scope module PipelinedCore_tb $end
$scope module PPCTB $end
$scope module DataMemoryPPC $end
$var reg 32 A \ram[0] [31:0] $end
$upscope $end
$upscope $end
$upscope $end
$scope module PipelinedCore_tb $end
$scope module PPCTB $end
$scope module DataMemoryPPC $end
$var reg 32 B \ram[1] [31:0] $end
$upscope $end
$upscope $end
$upscope $end
$scope module PipelinedCore_tb $end
$scope module PPCTB $end
$scope module DataMemoryPPC $end
$var reg 32 C \ram[2] [31:0] $end
$upscope $end
$upscope $end
$upscope $end
$scope module PipelinedCore_tb $end
$scope module PPCTB $end
$scope module DataMemoryPPC $end
$var reg 32 D \ram[3] [31:0] $end
$upscope $end
$upscope $end
$upscope $end
$scope module PipelinedCore_tb $end
$scope module PPCTB $end
$scope module DataMemoryPPC $end
$var reg 32 E \ram[4] [31:0] $end
$upscope $end
$upscope $end
$upscope $end
$scope module PipelinedCore_tb $end
$scope module PPCTB $end
$scope module DataMemoryPPC $end
$var reg 32 F \ram[5] [31:0] $end
$upscope $end
$upscope $end
$upscope $end
$scope module PipelinedCore_tb $end
$scope module PPCTB $end
$scope module DataMemoryPPC $end
$var reg 32 G \ram[6] [31:0] $end
$upscope $end
$upscope $end
$upscope $end
$scope module PipelinedCore_tb $end
$scope module PPCTB $end
$scope module DataMemoryPPC $end
$var reg 32 H \ram[7] [31:0] $end
$upscope $end
$upscope $end
$upscope $end
$scope module PipelinedCore_tb $end
$scope module PPCTB $end
$scope module DataMemoryPPC $end
$var reg 32 I \ram[8] [31:0] $end
$upscope $end
$upscope $end
$upscope $end
$scope module PipelinedCore_tb $end
$scope module PPCTB $end
$scope module DataMemoryPPC $end
$var reg 32 J \ram[9] [31:0] $end
$upscope $end
$upscope $end
$upscope $end
$scope module PipelinedCore_tb $end
$var wire 8 K leds [7:0] $end
$var reg 1 L original_clk $end
$var reg 1 M rst $end
$scope module PPCTB $end
$var wire 1 N IFIDRst $end
$var wire 32 O MEMWriteData [31:0] $end
$var wire 1 P PCSrc $end
$var wire 1 Q clk $end
$var wire 1 L original_clk $end
$var wire 1 M rst $end
$var wire 8 R leds [7:0] $end
$var wire 32 S WriteData [31:0] $end
$var wire 5 T WBRd [4:0] $end
$var wire 32 U WBDataOutput [31:0] $end
$var wire 32 V WBALUOutput [31:0] $end
$var wire 1 W Stall $end
$var wire 5 X Rs2 [4:0] $end
$var wire 5 Y Rs1 [4:0] $end
$var wire 1 Z RegWriteMEM $end
$var wire 1 [ RegWriteIDtoStall $end
$var wire 1 \ RegWriteID $end
$var wire 1 ] RegWriteEX $end
$var wire 1 ^ RegWrite $end
$var wire 32 _ ReadData2 [31:0] $end
$var wire 32 ` ReadData1 [31:0] $end
$var wire 5 a Rd [4:0] $end
$var wire 1 b PCWrite $end
$var wire 32 c PCPlus4 [31:0] $end
$var wire 32 d PCNext [31:0] $end
$var wire 32 e PCBranch [31:0] $end
$var wire 32 f PC [31:0] $end
$var wire 1 g MemtoRegMEM $end
$var wire 1 h MemtoRegID $end
$var wire 1 i MemtoRegEX $end
$var wire 1 j MemtoReg $end
$var wire 1 k MemWriteIDtoStall $end
$var wire 1 l MemWriteID $end
$var wire 1 m MemWriteEX $end
$var wire 1 n MemWrite $end
$var wire 1 o MemReadID $end
$var wire 1 p MemReadEX $end
$var wire 1 q MemRead $end
$var wire 5 r MEMRd [4:0] $end
$var wire 32 s MEMALUOutput [31:0] $end
$var wire 32 t MEMALUB [31:0] $end
$var wire 32 u Instruction [31:0] $end
$var wire 32 v Immediate [31:0] $end
$var wire 1 w IFIDWrite $end
$var wire 1 x IFIDFlush $end
$var wire 32 y IDPC [31:0] $end
$var wire 32 z IDInstruction [31:0] $end
$var wire 2 { ForwardBranchB [1:0] $end
$var wire 2 | ForwardBranchA [1:0] $end
$var wire 2 } ForwardALUB [1:0] $end
$var wire 2 ~ ForwardALUA [1:0] $end
$var wire 5 !" EXRs2 [4:0] $end
$var wire 5 "" EXRs1 [4:0] $end
$var wire 32 #" EXReadData2Forw [31:0] $end
$var wire 32 $" EXReadData2 [31:0] $end
$var wire 32 %" EXReadData1 [31:0] $end
$var wire 5 &" EXRd [4:0] $end
$var wire 32 '" EXImmediate [31:0] $end
$var wire 32 (" DataOutput [31:0] $end
$var wire 1 )" BranchID $end
$var wire 32 *" BranchB [31:0] $end
$var wire 1 +" BranchALUOutput $end
$var wire 32 ," BranchA [31:0] $end
$var wire 1 -" ALUSrcID $end
$var wire 1 ." ALUSrc $end
$var wire 32 /" ALUOutput [31:0] $end
$var wire 5 0" ALUCtrlID [4:0] $end
$var wire 5 1" ALUCtrl [4:0] $end
$var wire 32 2" ALUB [31:0] $end
$var wire 32 3" ALUA [31:0] $end
$var reg 32 4" PCtemp [31:0] $end
$scope module ALUPPC $end
$var wire 32 5" a [31:0] $end
$var wire 32 6" b [31:0] $end
$var wire 5 7" ALUCtrl [4:0] $end
$var reg 32 8" ALUOutput [31:0] $end
$scope begin AluOperation $end
$upscope $end
$upscope $end
$scope module BranchALUPPC $end
$var wire 32 9" a [31:0] $end
$var wire 32 :" b [31:0] $end
$var wire 5 ;" ALUCtrl [4:0] $end
$var reg 1 +" BranchALUOutput $end
$scope begin AluOperation $end
$upscope $end
$upscope $end
$scope module DataMemoryPPC $end
$var wire 4 <" addr [3:0] $end
$var wire 1 Q clk $end
$var wire 1 n we $end
$var wire 1 q re $end
$var wire 32 =" data_out [31:0] $end
$var wire 32 >" data_in [31:0] $end
$var integer 32 ?" idx [31:0] $end
$upscope $end
$scope module EXMEMRegsPPC $end
$var wire 1 Q clk $end
$var wire 1 @" en $end
$var wire 1 n readMemWrite $end
$var wire 1 g readMemtoReg $end
$var wire 5 A" readRd [4:0] $end
$var wire 32 B" readReadData2Forw [31:0] $end
$var wire 1 Z readRegWrite $end
$var wire 1 M rst $end
$var wire 32 C" writeALUOutput [31:0] $end
$var wire 32 D" writeReadData2Forw [31:0] $end
$var wire 1 ] writeRegWrite $end
$var wire 5 E" writeRd [4:0] $end
$var wire 1 i writeMemtoReg $end
$var wire 1 m writeMemWrite $end
$var wire 1 p writeMemRead $end
$var wire 1 q readMemRead $end
$var wire 32 F" readALUOutput [31:0] $end
$var reg 32 G" regALUOutput [31:0] $end
$var reg 1 q regMemRead $end
$var reg 1 H" regMemWrite $end
$var reg 1 I" regMemtoReg $end
$var reg 5 J" regRd [4:0] $end
$var reg 32 K" regReadData2Forw [31:0] $end
$var reg 1 L" regRegWrite $end
$scope begin WriteRegs $end
$upscope $end
$upscope $end
$scope module ForwardingToALUPPC $end
$var wire 5 M" MEMRd [4:0] $end
$var wire 1 Z RegWriteMEM $end
$var wire 5 N" WBRd [4:0] $end
$var wire 5 O" Rs2 [4:0] $end
$var wire 5 P" Rs1 [4:0] $end
$var wire 1 ^ RegWrite $end
$var reg 2 Q" ForwardA [1:0] $end
$var reg 2 R" ForwardB [1:0] $end
$scope begin ForwardingComb $end
$upscope $end
$upscope $end
$scope module ForwardingToBranchALUPPC $end
$var wire 5 S" MEMRd [4:0] $end
$var wire 1 Z RegWriteMEM $end
$var wire 5 T" Rs1 [4:0] $end
$var wire 5 U" Rs2 [4:0] $end
$var wire 5 V" WBRd [4:0] $end
$var wire 1 ^ RegWrite $end
$var reg 2 W" ForwardA [1:0] $end
$var reg 2 X" ForwardB [1:0] $end
$scope begin ForwardingComb $end
$upscope $end
$upscope $end
$scope module HazardDetectionPPC $end
$var wire 1 P PCSrc $end
$var wire 5 Y" Rs1 [4:0] $end
$var wire 5 Z" Rs2 [4:0] $end
$var wire 7 [" Opcode [6:0] $end
$var wire 1 o MemReadID $end
$var wire 1 p MemReadEX $end
$var wire 32 \" Instruction [31:0] $end
$var wire 5 ]" EXRd [4:0] $end
$var wire 1 )" BranchID $end
$var reg 1 x IFIDFlush $end
$var reg 1 w IFIDWrite $end
$var reg 1 b PCWrite $end
$var reg 1 W Stall $end
$scope begin FlusingUnit $end
$upscope $end
$scope begin StallingUnit $end
$upscope $end
$upscope $end
$scope module IDEXRegsPPC $end
$var wire 1 Q clk $end
$var wire 1 ^" en $end
$var wire 5 _" readALUCtrl [4:0] $end
$var wire 1 p readMemRead $end
$var wire 1 m readMemWrite $end
$var wire 1 i readMemtoReg $end
$var wire 5 `" readRd [4:0] $end
$var wire 1 ] readRegWrite $end
$var wire 5 a" readRs1 [4:0] $end
$var wire 5 b" readRs2 [4:0] $end
$var wire 1 M rst $end
$var wire 1 l writeMemWrite $end
$var wire 5 c" writeRd [4:0] $end
$var wire 1 \ writeRegWrite $end
$var wire 5 d" writeRs1 [4:0] $end
$var wire 5 e" writeRs2 [4:0] $end
$var wire 32 f" writeReadData2 [31:0] $end
$var wire 32 g" writeReadData1 [31:0] $end
$var wire 1 h writeMemtoReg $end
$var wire 1 o writeMemRead $end
$var wire 32 h" writeImmediate [31:0] $end
$var wire 1 -" writeALUSrc $end
$var wire 5 i" writeALUCtrl [4:0] $end
$var wire 32 j" readReadData2 [31:0] $end
$var wire 32 k" readReadData1 [31:0] $end
$var wire 32 l" readImmediate [31:0] $end
$var wire 1 ." readALUSrc $end
$var reg 5 m" regALUCtrl [4:0] $end
$var reg 1 ." regALUSrc $end
$var reg 32 n" regImmediate [31:0] $end
$var reg 1 o" regMemRead $end
$var reg 1 p" regMemWrite $end
$var reg 1 q" regMemtoReg $end
$var reg 5 r" regRd [4:0] $end
$var reg 32 s" regReadData1 [31:0] $end
$var reg 32 t" regReadData2 [31:0] $end
$var reg 1 u" regRegWrite $end
$var reg 5 v" regRs1 [4:0] $end
$var reg 5 w" regRs2 [4:0] $end
$scope begin WriteRegs $end
$upscope $end
$upscope $end
$scope module IFIDRegsPPC $end
$var wire 1 Q clk $end
$var wire 1 w en $end
$var wire 1 N rst $end
$var wire 32 x" writePC [31:0] $end
$var wire 32 y" writeInstruction [31:0] $end
$var wire 32 z" readPC [31:0] $end
$var wire 32 {" readInstruction [31:0] $end
$var reg 32 |" regInstruction [31:0] $end
$var reg 32 }" regPC [31:0] $end
$scope begin WriteRegs $end
$upscope $end
$upscope $end
$scope module ImmGenPPC $end
$var wire 32 ~" Instruction [31:0] $end
$var reg 32 !# Bimm [31:0] $end
$var reg 32 "# Iimm [31:0] $end
$var reg 32 ## Immediate [31:0] $end
$var reg 32 $# Jimm [31:0] $end
$var reg 5 %# Opcode [6:2] $end
$var reg 32 &# Simm [31:0] $end
$var reg 32 '# Uimm [31:0] $end
$scope begin FormatSelect $end
$upscope $end
$upscope $end
$scope module MEMWBRegsPPC $end
$var wire 1 Q clk $end
$var wire 1 (# en $end
$var wire 5 )# readRd [4:0] $end
$var wire 1 ^ readRegWrite $end
$var wire 1 M rst $end
$var wire 32 *# writeALUOutput [31:0] $end
$var wire 32 +# writeDataOutput [31:0] $end
$var wire 1 g writeMemtoReg $end
$var wire 5 ,# writeRd [4:0] $end
$var wire 1 Z writeRegWrite $end
$var wire 1 j readMemtoReg $end
$var wire 32 -# readDataOutput [31:0] $end
$var wire 32 .# readALUOutput [31:0] $end
$var reg 32 /# regALUOutput [31:0] $end
$var reg 32 0# regDataOutput [31:0] $end
$var reg 1 j regMemtoReg $end
$var reg 5 1# regRd [4:0] $end
$var reg 1 2# regRegWrite $end
$scope begin WriteRegs $end
$upscope $end
$upscope $end
$scope module MainControlPPC $end
$var wire 32 3# Instruction [31:0] $end
$var wire 7 4# Opcode [6:0] $end
$var wire 1 5# Func7 $end
$var wire 3 6# Func3 [2:0] $end
$var reg 5 7# ALUCtrl [4:0] $end
$var reg 1 -" ALUSrc $end
$var reg 1 )" Branch $end
$var reg 1 o MemRead $end
$var reg 1 k MemWrite $end
$var reg 1 h MemtoReg $end
$var reg 1 [ RegWrite $end
$scope begin OpcodeDecode $end
$upscope $end
$upscope $end
$scope module RegisterFilePPC $end
$var wire 5 8# Rd [4:0] $end
$var wire 32 9# ReadData1 [31:0] $end
$var wire 32 :# ReadData2 [31:0] $end
$var wire 5 ;# Rs1 [4:0] $end
$var wire 5 <# Rs2 [4:0] $end
$var wire 32 =# WriteData [31:0] $end
$var wire 1 ^ WriteEn $end
$var wire 1 Q clk $end
$var wire 1 M rst $end
$var integer 32 ># i [31:0] $end
$var integer 32 ?# idx [31:0] $end
$scope begin WriteBank $end
$upscope $end
$upscope $end
$scope module TextMemoryPPC $end
$var wire 8 @# addr [7:0] $end
$var reg 32 A# data_out [31:0] $end
$upscope $end
$scope begin ProgramCounter $end
$upscope $end
$upscope $end
$upscope $end
$enddefinitions $end
#0
$dumpvars
bx A#
bx @#
b100000 ?#
bx >#
bx =#
bx <#
bx ;#
bx :#
bx 9#
bx 8#
bx 7#
bx 6#
x5#
bx 4#
bx 3#
x2#
bx 1#
bx 0#
bx /#
bx .#
bx -#
bx ,#
bx +#
bx *#
bx )#
1(#
bx '#
bx &#
bx %#
bx $#
bx ##
bx "#
bx !#
bx ~"
bx }"
bx |"
bx {"
bx z"
bx y"
bx x"
bx w"
bx v"
xu"
bx t"
bx s"
bx r"
xq"
xp"
xo"
bx n"
bx m"
bx l"
bx k"
bx j"
bx i"
bx h"
bx g"
bx f"
bx e"
bx d"
bx c"
bx b"
bx a"
bx `"
bx _"
1^"
bx ]"
bx \"
bx ["
bx Z"
bx Y"
bx X"
bx W"
bx V"
bx U"
bx T"
bx S"
bx R"
bx Q"
bx P"
bx O"
bx N"
bx M"
xL"
bx K"
bx J"
xI"
xH"
bx G"
bx F"
bx E"
bx D"
bx C"
bx B"
bx A"
1@"
b1010 ?"
bx >"
bx ="
bx <"
bx ;"
bx :"
bx 9"
bx 8"
bx 7"
bx 6"
bx 5"
bx 4"
bx 3"
bx 2"
bx 1"
bx 0"
bx /"
x."
x-"
bx ,"
x+"
bx *"
x)"
bx ("
bx '"
bx &"
bx %"
bx $"
bx #"
bx ""
bx !"
bx ~
bx }
bx |
bx {
bx z
bx y
xx
xw
bx v
bx u
bx t
bx s
bx r
xq
xp
xo
xn
xm
xl
xk
xj
xi
xh
xg
bx f
bx e
bx d
bx c
xb
bx a
bx `
bx _
x^
x]
x\
x[
xZ
bx Y
bx X
xW
bx V
bx U
bx T
bx S
bx R
0Q
xP
bx O
xN
0M
0L
bx K
bx J
bx I
bx H
bx G
bx F
bx E
bx D
bx C
b10 B
b1 A
bx @
bx ?
bx >
bx =
bx <
bx ;
bx :
bx 9
bx 8
bx 7
bx 6
bx 5
bx 4
bx 3
bx 2
bx 1
bx 0
bx /
bx .
bx -
bx ,
bx +
bx *
bx )
bx (
bx '
bx &
bx %
bx $
bx #
bx "
bx !
$end
#1
0N
0x
0+"
0P
0l
0\
b0 0"
b0 ;"
b0 i"
b0 7#
0)"
0k
0o
0[
0h
0-"
0W
1w
1b
b0 {
b0 X"
b0 |
b0 W"
b0 4#
05#
b0 6#
b0 Z"
b0 Y"
b0 ["
b0 a
b0 c"
b0 X
b0 U"
b0 e"
b0 <#
b0 Y
b0 T"
b0 d"
b0 ;#
b0 e
b0 v
b0 h"
b0 ##
b0 "#
b0 %#
b0 z
b0 \"
b0 {"
b0 |"
b0 ~"
b0 3#
b0 y
b0 z"
b0 }"
1Q
1L
#2
0Q
0L
#3
b0 }
b0 R"
b0 ~
b0 Q"
bx 4#
x5#
bx 6#
bx ["
bx Z"
bx Y"
bx a
bx c"
bx X
bx U"
bx e"
bx <#
bx Y
bx T"
bx d"
bx ;#
bx %#
b0 !"
b0 O"
b0 b"
b0 w"
b0 ""
b0 P"
b0 a"
b0 v"
b0 1"
b0 7"
b0 _"
b0 m"
0."
0p
0o"
0m
0p"
0i
0q"
0]
0u"
b0 &"
b0 E"
b0 ]"
b0 `"
b0 r"
b0 '"
b0 l"
b0 n"
bx z
bx \"
bx {"
bx |"
bx ~"
bx 3#
bx e
bx y
bx z"
bx }"
1Q
1L
#4
0Q
0L
#5
b0 ("
b0 ="
b0 +#
0q
0n
0H"
0g
0I"
0Z
0L"
b0 r
b0 A"
b0 M"
b0 S"
b0 ,#
b0 J"
bx !"
bx O"
bx b"
bx w"
bx ""
bx P"
bx a"
bx v"
bx &"
bx E"
bx ]"
bx `"
bx r"
1Q
1L
#6
0Q
0L
#7
0j
0^
02#
b0 T
b0 N"
b0 V"
b0 )#
b0 8#
b0 1#
b0 U
b0 -#
b0 0#
bx r
bx A"
bx M"
bx S"
bx ,#
bx J"
1Q
1L
#8
0Q
0L
#9
bx T
bx N"
bx V"
bx )#
bx 8#
bx 1#
1Q
1L
#10
b0 @
b0 ?
b0 >
b0 =
b0 <
b0 ;
b0 :
b0 9
b0 8
b0 7
b0 6
b0 5
b0 4
b0 3
b0 2
b0 1
b0 0
b0 /
b0 .
b0 -
b0 ,
b0 +
b0 *
b0 )
b0 (
b0 '
b0 &
b0 %
b0 $
b0 #
b0 "
b0 !
b100000 >#
1N
0Q
0L
1M
#11
b0 K
b0 R
b0 /"
b0 8"
b0 C"
b0 2"
b0 6"
b0 *"
b0 :"
b0 ,"
b0 9"
b1010010010100000011 u
b1010010010100000011 y"
b1010010010100000011 A#
b0 #"
b0 D"
b0 3"
b0 5"
b100 d
b0 @#
b0 S
b0 =#
b0 4#
05#
b0 6#
b0 Z"
b0 Y"
b0 ["
b0 a
b0 c"
b0 _
b0 f"
b0 :#
b0 X
b0 U"
b0 e"
b0 <#
b0 `
b0 g"
b0 9#
b0 Y
b0 T"
b0 d"
b0 ;#
b0 %#
b100 c
b0 f
b0 4"
b0 x"
b0 T
b0 N"
b0 V"
b0 )#
b0 8#
b0 1#
b0 V
b0 .#
b0 /#
b0 !"
b0 O"
b0 b"
b0 w"
b0 ""
b0 P"
b0 a"
b0 v"
b0 &"
b0 E"
b0 ]"
b0 `"
b0 r"
b0 $"
b0 j"
b0 t"
b0 %"
b0 k"
b0 s"
b0 z
b0 \"
b0 {"
b0 |"
b0 ~"
b0 3#
b0 e
b0 y
b0 z"
b0 }"
1Q
1L
#12
b0 @
b0 ?
b0 >
b0 =
b0 <
b0 ;
b0 :
b0 9
b0 8
b0 7
b0 6
b0 5
b0 4
b0 3
b0 2
b0 1
b0 0
b0 /
b0 .
b0 -
b0 ,
b0 +
b0 *
b0 )
b0 (
b0 '
b0 &
b0 %
b0 $
b0 #
b0 "
b0 !
b100000 >#
0Q
0L
#13
b0 <"
b0 r
b0 A"
b0 M"
b0 S"
b0 ,#
b0 J"
b0 t
b0 >"
b0 B"
b0 K"
b0 O
b0 s
b0 F"
b0 G"
b0 *#
1Q
1L
#14
b0 @
b0 ?
b0 >
b0 =
b0 <
b0 ;
b0 :
b0 9
b0 8
b0 7
b0 6
b0 5
b0 4
b0 3
b0 2
b0 1
b0 0
b0 /
b0 .
b0 -
b0 ,
b0 +
b0 *
b0 )
b0 (
b0 '
b0 &
b0 %
b0 $
b0 #
b0 "
b0 !
b100000 >#
0Q
0L
#15
1Q
1L
#16
b0 @
b0 ?
b0 >
b0 =
b0 <
b0 ;
b0 :
b0 9
b0 8
b0 7
b0 6
b0 5
b0 4
b0 3
b0 2
b0 1
b0 0
b0 /
b0 .
b0 -
b0 ,
b0 +
b0 *
b0 )
b0 (
b0 '
b0 &
b0 %
b0 $
b0 #
b0 "
b0 !
b100000 >#
0Q
0L
#17
1Q
1L
#18
b0 @
b0 ?
b0 >
b0 =
b0 <
b0 ;
b0 :
b0 9
b0 8
b0 7
b0 6
b0 5
b0 4
b0 3
b0 2
b0 1
b0 0
b0 /
b0 .
b0 -
b0 ,
b0 +
b0 *
b0 )
b0 (
b0 '
b0 &
b0 %
b0 $
b0 #
b0 "
b0 !
b100000 >#
0Q
0L
#19
1Q
1L
#20
0N
0Q
0L
0M
#21
1\
b10001011010010110000011 u
b10001011010010110000011 y"
b10001011010010110000011 A#
1o
1[
1h
1-"
b1000 d
b1 @#
b11 4#
b10 6#
b11 ["
b1010 Y"
b1010 a
b1010 c"
b1010 Y
b1010 T"
b1010 d"
b1010 ;#
b1000 c
b100 f
b100 4"
b100 x"
b1010010010100000011 z
b1010010010100000011 \"
b1010010010100000011 {"
b1010010010100000011 |"
b1010010010100000011 ~"
b1010010010100000011 3#
1Q
1L
#22
0Q
0L
#23
b101101010000011000110011 u
b101101010000011000110011 y"
b101101010000011000110011 A#
b1100 d
b10 @#
b100 Z"
b1011 Y"
b1011 a
b1011 c"
b100 X
b100 U"
b100 e"
b100 <#
b1011 Y
b1011 T"
b1011 d"
b1011 ;#
b100 v
b100 h"
b100 ##
b100 "#
b1100 c
b1000 f
b1000 4"
b1000 x"
b1010 ""
b1010 P"
b1010 a"
b1010 v"
1."
1p
1o"
1i
1q"
1]
1u"
b1010 &"
b1010 E"
b1010 ]"
b1010 `"
b1010 r"
b10001011010010110000011 z
b10001011010010110000011 \"
b10001011010010110000011 {"
b10001011010010110000011 |"
b10001011010010110000011 ~"
b10001011010010110000011 3#
b1000 e
b100 y
b100 z"
b100 }"
1Q
1L
#24
0Q
0L
#25
b110000101010001000100011 u
b110000101010001000100011 y"
b110000101010001000100011 A#
0\
b100 /"
b100 8"
b100 C"
0o
0h
0-"
b10000 d
b11 @#
b1 ("
b1 ="
b1 +#
b1 |
b1 W"
1W
0w
0b
b100 2"
b100 6"
b110011 4#
b0 6#
b110011 ["
b1011 Z"
b1010 Y"
b1100 a
b1100 c"
b1011 X
b1011 U"
b1011 e"
b1011 <#
b1010 Y
b1010 T"
b1010 d"
b1010 ;#
b0 v
b0 h"
b0 ##
b1100 %#
b10000 c
b1100 f
b1100 4"
b1100 x"
1q
1g
1I"
1Z
1L"
b1010 r
b1010 A"
b1010 M"
b1010 S"
b1010 ,#
b1010 J"
b100 !"
b100 O"
b100 b"
b100 w"
b1011 ""
b1011 P"
b1011 a"
b1011 v"
b1011 &"
b1011 E"
b1011 ]"
b1011 `"
b1011 r"
b100 '"
b100 l"
b100 n"
b101101010000011000110011 z
b101101010000011000110011 \"
b101101010000011000110011 {"
b101101010000011000110011 |"
b101101010000011000110011 ~"
b101101010000011000110011 3#
b1000 e
b1000 y
b1000 z"
b1000 }"
1Q
1L
#26
0Q
0L
#27
b1 K
b1 R
b100 *"
b100 :"
b100 #"
b100 D"
b1 3"
b1 5"
b10 ("
b10 ="
b10 +#
b1 ,"
b1 9"
1\
b101 /"
b101 8"
b101 C"
b1 S
b1 =#
b1 {
b1 X"
b10 |
b10 W"
b1 <"
b1 }
b1 R"
b10 ~
b10 Q"
0W
1w
1b
b100 2"
b100 6"
1j
1^
12#
b1010 T
b1010 N"
b1010 V"
b1010 )#
b1010 8#
b1010 1#
b1 U
b1 -#
b1 0#
b1011 r
b1011 A"
b1011 M"
b1011 S"
b1011 ,#
b1011 J"
b100 O
b100 s
b100 F"
b100 G"
b100 *#
b1011 !"
b1011 O"
b1011 b"
b1011 w"
b1010 ""
b1010 P"
b1010 a"
b1010 v"
0."
0p
0o"
0i
0q"
0]
0u"
b1100 &"
b1100 E"
b1100 ]"
b1100 `"
b1100 r"
b0 '"
b0 l"
b0 n"
1Q
1L
#28
b1 +
b1 `
b1 g"
b1 9#
0Q
0L
