RTL/sim/icarus/PipelinedCore_tb.vcd
$date
	Mon Nov 15 11:06:51 2021
$end
$version
	Icarus Verilog
$end
$timescale
	1ns
$end
$scope module PipelinedCore_tb $end
$scope module PPCTB $end
$scope module RegisterFilePPC $end
$var reg 32 ! \bank[0] [31:0] $end
$upscope $end
$upscope $end
$upscope $end
$scope module PipelinedCore_tb $end
$scope module PPCTB $end
$scope module RegisterFilePPC $end
$var reg 32 " \bank[1] [31:0] $end
$upscope $end
$upscope $end
$upscope $end
$scope module PipelinedCore_tb $end
$scope module PPCTB $end
$scope module RegisterFilePPC $end
$var reg 32 # \bank[2] [31:0] $end
$upscope $end
$upscope $end
$upscope $end
$scope module PipelinedCore_tb $end
$scope module PPCTB $end
$scope module RegisterFilePPC $end
$var reg 32 $ \bank[3] [31:0] $end
$upscope $end
$upscope $end
$upscope $end
$scope module PipelinedCore_tb $end
$scope module PPCTB $end
$scope module RegisterFilePPC $end
$var reg 32 % \bank[4] [31:0] $end
$upscope $end
$upscope $end
$upscope $end
$scope module PipelinedCore_tb $end
$scope module PPCTB $end
$scope module RegisterFilePPC $end
$var reg 32 & \bank[5] [31:0] $end
$upscope $end
$upscope $end
$upscope $end
$scope module PipelinedCore_tb $end
$scope module PPCTB $end
$scope module RegisterFilePPC $end
$var reg 32 ' \bank[6] [31:0] $end
$upscope $end
$upscope $end
$upscope $end
$scope module PipelinedCore_tb $end
$scope module PPCTB $end
$scope module RegisterFilePPC $end
$var reg 32 ( \bank[7] [31:0] $end
$upscope $end
$upscope $end
$upscope $end
$scope module PipelinedCore_tb $end
$scope module PPCTB $end
$scope module RegisterFilePPC $end
$var reg 32 ) \bank[8] [31:0] $end
$upscope $end
$upscope $end
$upscope $end
$scope module PipelinedCore_tb $end
$scope module PPCTB $end
$scope module RegisterFilePPC $end
$var reg 32 * \bank[9] [31:0] $end
$upscope $end
$upscope $end
$upscope $end
$scope module PipelinedCore_tb $end
$scope module PPCTB $end
$scope module RegisterFilePPC $end
$var reg 32 + \bank[10] [31:0] $end
$upscope $end
$upscope $end
$upscope $end
$scope module PipelinedCore_tb $end
$scope module PPCTB $end
$scope module RegisterFilePPC $end
$var reg 32 , \bank[11] [31:0] $end
$upscope $end
$upscope $end
$upscope $end
$scope module PipelinedCore_tb $end
$scope module PPCTB $end
$scope module RegisterFilePPC $end
$var reg 32 - \bank[12] [31:0] $end
$upscope $end
$upscope $end
$upscope $end
$scope module PipelinedCore_tb $end
$scope module PPCTB $end
$scope module RegisterFilePPC $end
$var reg 32 . \bank[13] [31:0] $end
$upscope $end
$upscope $end
$upscope $end
$scope module PipelinedCore_tb $end
$scope module PPCTB $end
$scope module RegisterFilePPC $end
$var reg 32 / \bank[14] [31:0] $end
$upscope $end
$upscope $end
$upscope $end
$scope module PipelinedCore_tb $end
$scope module PPCTB $end
$scope module RegisterFilePPC $end
$var reg 32 0 \bank[15] [31:0] $end
$upscope $end
$upscope $end
$upscope $end
$scope module PipelinedCore_tb $end
$scope module PPCTB $end
$scope module RegisterFilePPC $end
$var reg 32 1 \bank[16] [31:0] $end
$upscope $end
$upscope $end
$upscope $end
$scope module PipelinedCore_tb $end
$scope module PPCTB $end
$scope module RegisterFilePPC $end
$var reg 32 2 \bank[17] [31:0] $end
$upscope $end
$upscope $end
$upscope $end
$scope module PipelinedCore_tb $end
$scope module PPCTB $end
$scope module RegisterFilePPC $end
$var reg 32 3 \bank[18] [31:0] $end
$upscope $end
$upscope $end
$upscope $end
$scope module PipelinedCore_tb $end
$scope module PPCTB $end
$scope module RegisterFilePPC $end
$var reg 32 4 \bank[19] [31:0] $end
$upscope $end
$upscope $end
$upscope $end
$scope module PipelinedCore_tb $end
$scope module PPCTB $end
$scope module RegisterFilePPC $end
$var reg 32 5 \bank[20] [31:0] $end
$upscope $end
$upscope $end
$upscope $end
$scope module PipelinedCore_tb $end
$scope module PPCTB $end
$scope module RegisterFilePPC $end
$var reg 32 6 \bank[21] [31:0] $end
$upscope $end
$upscope $end
$upscope $end
$scope module PipelinedCore_tb $end
$scope module PPCTB $end
$scope module RegisterFilePPC $end
$var reg 32 7 \bank[22] [31:0] $end
$upscope $end
$upscope $end
$upscope $end
$scope module PipelinedCore_tb $end
$scope module PPCTB $end
$scope module RegisterFilePPC $end
$var reg 32 8 \bank[23] [31:0] $end
$upscope $end
$upscope $end
$upscope $end
$scope module PipelinedCore_tb $end
$scope module PPCTB $end
$scope module RegisterFilePPC $end
$var reg 32 9 \bank[24] [31:0] $end
$upscope $end
$upscope $end
$upscope $end
$scope module PipelinedCore_tb $end
$scope module PPCTB $end
$scope module RegisterFilePPC $end
$var reg 32 : \bank[25] [31:0] $end
$upscope $end
$upscope $end
$upscope $end
$scope module PipelinedCore_tb $end
$scope module PPCTB $end
$scope module RegisterFilePPC $end
$var reg 32 ; \bank[26] [31:0] $end
$upscope $end
$upscope $end
$upscope $end
$scope module PipelinedCore_tb $end
$scope module PPCTB $end
$scope module RegisterFilePPC $end
$var reg 32 < \bank[27] [31:0] $end
$upscope $end
$upscope $end
$upscope $end
$scope module PipelinedCore_tb $end
$scope module PPCTB $end
$scope module RegisterFilePPC $end
$var reg 32 = \bank[28] [31:0] $end
$upscope $end
$upscope $end
$upscope $end
$scope module PipelinedCore_tb $end
$scope module PPCTB $end
$scope module RegisterFilePPC $end
$var reg 32 > \bank[29] [31:0] $end
$upscope $end
$upscope $end
$upscope $end
$scope module PipelinedCore_tb $end
$scope module PPCTB $end
$scope module RegisterFilePPC $end
$var reg 32 ? \bank[30] [31:0] $end
$upscope $end
$upscope $end
$upscope $end
$scope module PipelinedCore_tb $end
$scope module PPCTB $end
$scope module RegisterFilePPC $end
$var reg 32 @ \bank[31] [31:0] $end
$upscope $end
$upscope $end
$upscope $end
$scope module PipelinedCore_tb $end
$scope module PPCTB $end
$scope module DataMemoryPPC $end
$var reg 32 A \ram[0] [31:0] $end
$upscope $end
$upscope $end
$upscope $end
$scope module PipelinedCore_tb $end
$scope module PPCTB $end
$scope module DataMemoryPPC $end
$var reg 32 B \ram[1] [31:0] $end
$upscope $end
$upscope $end
$upscope $end
$scope module PipelinedCore_tb $end
$scope module PPCTB $end
$scope module DataMemoryPPC $end
$var reg 32 C \ram[2] [31:0] $end
$upscope $end
$upscope $end
$upscope $end
$scope module PipelinedCore_tb $end
$scope module PPCTB $end
$scope module DataMemoryPPC $end
$var reg 32 D \ram[3] [31:0] $end
$upscope $end
$upscope $end
$upscope $end
$scope module PipelinedCore_tb $end
$scope module PPCTB $end
$scope module DataMemoryPPC $end
$var reg 32 E \ram[4] [31:0] $end
$upscope $end
$upscope $end
$upscope $end
$scope module PipelinedCore_tb $end
$scope module PPCTB $end
$scope module DataMemoryPPC $end
$var reg 32 F \ram[5] [31:0] $end
$upscope $end
$upscope $end
$upscope $end
$scope module PipelinedCore_tb $end
$scope module PPCTB $end
$scope module DataMemoryPPC $end
$var reg 32 G \ram[6] [31:0] $end
$upscope $end
$upscope $end
$upscope $end
$scope module PipelinedCore_tb $end
$scope module PPCTB $end
$scope module DataMemoryPPC $end
$var reg 32 H \ram[7] [31:0] $end
$upscope $end
$upscope $end
$upscope $end
$scope module PipelinedCore_tb $end
$scope module PPCTB $end
$scope module DataMemoryPPC $end
$var reg 32 I \ram[8] [31:0] $end
$upscope $end
$upscope $end
$upscope $end
$scope module PipelinedCore_tb $end
$scope module PPCTB $end
$scope module DataMemoryPPC $end
$var reg 32 J \ram[9] [31:0] $end
$upscope $end
$upscope $end
$upscope $end
$scope module PipelinedCore_tb $end
$var wire 8 K leds [7:0] $end
$var reg 1 L original_clk $end
$var reg 1 M rst $end
$scope module PPCTB $end
$var wire 1 N IFIDRst $end
$var wire 32 O MEMWriteData [31:0] $end
$var wire 1 P PCSrc $end
$var wire 1 Q clk $end
$var wire 1 L original_clk $end
$var wire 1 M rst $end
$var wire 8 R leds [7:0] $end
$var wire 32 S WriteData [31:0] $end
$var wire 5 T WBRd [4:0] $end
$var wire 32 U WBInstruction [31:0] $end
$var wire 32 V WBDataOutput [31:0] $end
$var wire 32 W WBALUOutput [31:0] $end
$var wire 1 X Stall $end
$var wire 5 Y Rs2 [4:0] $end
$var wire 5 Z Rs1 [4:0] $end
$var wire 1 [ RegWriteMEM $end
$var wire 1 \ RegWriteIDtoStall $end
$var wire 1 ] RegWriteID $end
$var wire 1 ^ RegWriteEX $end
$var wire 1 _ RegWrite $end
$var wire 32 ` ReadData2 [31:0] $end
$var wire 32 a ReadData1 [31:0] $end
$var wire 5 b Rd [4:0] $end
$var wire 1 c PCWrite $end
$var wire 32 d PCPlus4 [31:0] $end
$var wire 32 e PCNext [31:0] $end
$var wire 32 f PCBranch [31:0] $end
$var wire 32 g PC [31:0] $end
$var wire 1 h MemtoRegMEM $end
$var wire 1 i MemtoRegID $end
$var wire 1 j MemtoRegEX $end
$var wire 1 k MemtoReg $end
$var wire 1 l MemWriteIDtoStall $end
$var wire 1 m MemWriteID $end
$var wire 1 n MemWriteEX $end
$var wire 1 o MemWrite $end
$var wire 1 p MemReadID $end
$var wire 1 q MemReadEX $end
$var wire 1 r MemRead $end
$var wire 5 s MEMRd [4:0] $end
$var wire 32 t MEMInstruction [31:0] $end
$var wire 32 u MEMALUOutput [31:0] $end
$var wire 32 v MEMALUB [31:0] $end
$var wire 32 w Instruction [31:0] $end
$var wire 32 x Immediate [31:0] $end
$var wire 1 y IFIDWrite $end
$var wire 1 z IFIDFlush $end
$var wire 32 { IDPC [31:0] $end
$var wire 32 | IDInstruction [31:0] $end
$var wire 2 } ForwardBranchB [1:0] $end
$var wire 2 ~ ForwardBranchA [1:0] $end
$var wire 2 !" ForwardALUB [1:0] $end
$var wire 2 "" ForwardALUA [1:0] $end
$var wire 5 #" EXRs2 [4:0] $end
$var wire 5 $" EXRs1 [4:0] $end
$var wire 32 %" EXReadData2Forw [31:0] $end
$var wire 32 &" EXReadData2 [31:0] $end
$var wire 32 '" EXReadData1 [31:0] $end
$var wire 5 (" EXRd [4:0] $end
$var wire 32 )" EXInstruction [31:0] $end
$var wire 32 *" EXImmediate [31:0] $end
$var wire 32 +" DataOutput [31:0] $end
$var wire 1 ," BranchID $end
$var wire 32 -" BranchB [31:0] $end
$var wire 1 ." BranchALUOutput $end
$var wire 32 /" BranchA [31:0] $end
$var wire 1 0" ALUSrcID $end
$var wire 1 1" ALUSrc $end
$var wire 32 2" ALUOutput [31:0] $end
$var wire 5 3" ALUCtrlID [4:0] $end
$var wire 5 4" ALUCtrl [4:0] $end
$var wire 32 5" ALUB [31:0] $end
$var wire 32 6" ALUA [31:0] $end
$var reg 32 7" PCtemp [31:0] $end
$scope module ALUPPC $end
$var wire 32 8" a [31:0] $end
$var wire 32 9" b [31:0] $end
$var wire 5 :" ALUCtrl [4:0] $end
$var reg 32 ;" ALUOutput [31:0] $end
$scope begin AluOperation $end
$upscope $end
$upscope $end
$scope module BranchALUPPC $end
$var wire 32 <" a [31:0] $end
$var wire 32 =" b [31:0] $end
$var wire 5 >" ALUCtrl [4:0] $end
$var reg 1 ." BranchALUOutput $end
$scope begin AluOperation $end
$upscope $end
$upscope $end
$scope module DataMemoryPPC $end
$var wire 4 ?" addr [3:0] $end
$var wire 1 Q clk $end
$var wire 1 o we $end
$var wire 1 r re $end
$var wire 32 @" data_out [31:0] $end
$var wire 32 A" data_in [31:0] $end
$var integer 32 B" idx [31:0] $end
$upscope $end
$scope module EXMEMRegsPPC $end
$var wire 1 Q clk $end
$var wire 1 C" en $end
$var wire 32 D" readInstruction [31:0] $end
$var wire 1 o readMemWrite $end
$var wire 1 h readMemtoReg $end
$var wire 5 E" readRd [4:0] $end
$var wire 32 F" readReadData2Forw [31:0] $end
$var wire 1 [ readRegWrite $end
$var wire 1 M rst $end
$var wire 32 G" writeALUOutput [31:0] $end
$var wire 32 H" writeReadData2Forw [31:0] $end
$var wire 1 ^ writeRegWrite $end
$var wire 5 I" writeRd [4:0] $end
$var wire 1 j writeMemtoReg $end
$var wire 1 n writeMemWrite $end
$var wire 1 q writeMemRead $end
$var wire 32 J" writeInstruction [31:0] $end
$var wire 1 r readMemRead $end
$var wire 32 K" readALUOutput [31:0] $end
$var reg 32 L" regALUOutput [31:0] $end
$var reg 32 M" regInstruction [31:0] $end
$var reg 1 r regMemRead $end
$var reg 1 N" regMemWrite $end
$var reg 1 O" regMemtoReg $end
$var reg 5 P" regRd [4:0] $end
$var reg 32 Q" regReadData2Forw [31:0] $end
$var reg 1 R" regRegWrite $end
$scope begin WriteRegs $end
$upscope $end
$upscope $end
$scope module ForwardingToALUPPC $end
$var wire 5 S" MEMRd [4:0] $end
$var wire 1 [ RegWriteMEM $end
$var wire 5 T" WBRd [4:0] $end
$var wire 5 U" Rs2 [4:0] $end
$var wire 5 V" Rs1 [4:0] $end
$var wire 1 _ RegWrite $end
$var reg 2 W" ForwardA [1:0] $end
$var reg 2 X" ForwardB [1:0] $end
$scope begin ForwardingComb $end
$upscope $end
$upscope $end
$scope module ForwardingToBranchALUPPC $end
$var wire 5 Y" MEMRd [4:0] $end
$var wire 1 [ RegWriteMEM $end
$var wire 5 Z" Rs1 [4:0] $end
$var wire 5 [" Rs2 [4:0] $end
$var wire 5 \" WBRd [4:0] $end
$var wire 1 _ RegWrite $end
$var reg 2 ]" ForwardA [1:0] $end
$var reg 2 ^" ForwardB [1:0] $end
$scope begin ForwardingComb $end
$upscope $end
$upscope $end
$scope module HazardDetectionPPC $end
$var wire 5 _" MEMRd [4:0] $end
$var wire 1 r MemRead $end
$var wire 1 P PCSrc $end
$var wire 5 `" Rs2 [4:0] $end
$var wire 5 a" Rs1 [4:0] $end
$var wire 1 ^ RegWriteEX $end
$var wire 1 q MemReadEX $end
$var wire 32 b" Instruction [31:0] $end
$var wire 5 c" EXRd [4:0] $end
$var wire 1 ," BranchID $end
$var reg 1 z IFIDFlush $end
$var reg 1 y IFIDWrite $end
$var reg 1 c PCWrite $end
$var reg 1 X Stall $end
$scope begin FlusingUnit $end
$upscope $end
$scope begin StallingUnit $end
$upscope $end
$upscope $end
$scope module IDEXRegsPPC $end
$var wire 1 Q clk $end
$var wire 1 d" en $end
$var wire 5 e" readALUCtrl [4:0] $end
$var wire 32 f" readInstruction [31:0] $end
$var wire 1 q readMemRead $end
$var wire 1 n readMemWrite $end
$var wire 1 j readMemtoReg $end
$var wire 5 g" readRd [4:0] $end
$var wire 1 ^ readRegWrite $end
$var wire 5 h" readRs1 [4:0] $end
$var wire 5 i" readRs2 [4:0] $end
$var wire 1 M rst $end
$var wire 1 m writeMemWrite $end
$var wire 5 j" writeRd [4:0] $end
$var wire 1 ] writeRegWrite $end
$var wire 5 k" writeRs1 [4:0] $end
$var wire 5 l" writeRs2 [4:0] $end
$var wire 32 m" writeReadData2 [31:0] $end
$var wire 32 n" writeReadData1 [31:0] $end
$var wire 1 i writeMemtoReg $end
$var wire 1 p writeMemRead $end
$var wire 32 o" writeInstruction [31:0] $end
$var wire 32 p" writeImmediate [31:0] $end
$var wire 1 0" writeALUSrc $end
$var wire 5 q" writeALUCtrl [4:0] $end
$var wire 32 r" readReadData2 [31:0] $end
$var wire 32 s" readReadData1 [31:0] $end
$var wire 32 t" readImmediate [31:0] $end
$var wire 1 1" readALUSrc $end
$var reg 5 u" regALUCtrl [4:0] $end
$var reg 1 1" regALUSrc $end
$var reg 32 v" regImmediate [31:0] $end
$var reg 32 w" regInstruction [31:0] $end
$var reg 1 x" regMemRead $end
$var reg 1 y" regMemWrite $end
$var reg 1 z" regMemtoReg $end
$var reg 5 {" regRd [4:0] $end
$var reg 32 |" regReadData1 [31:0] $end
$var reg 32 }" regReadData2 [31:0] $end
$var reg 1 ~" regRegWrite $end
$var reg 5 !# regRs1 [4:0] $end
$var reg 5 "# regRs2 [4:0] $end
$scope begin WriteRegs $end
$upscope $end
$upscope $end
$scope module IFIDRegsPPC $end
$var wire 1 Q clk $end
$var wire 1 y en $end
$var wire 1 N rst $end
$var wire 32 ## writePC [31:0] $end
$var wire 32 $# writeInstruction [31:0] $end
$var wire 32 %# readPC [31:0] $end
$var wire 32 &# readInstruction [31:0] $end
$var reg 32 '# regInstruction [31:0] $end
$var reg 32 (# regPC [31:0] $end
$scope begin WriteRegs $end
$upscope $end
$upscope $end
$scope module ImmGenPPC $end
$var wire 32 )# Instruction [31:0] $end
$var reg 32 *# Bimm [31:0] $end
$var reg 32 +# Iimm [31:0] $end
$var reg 32 ,# Immediate [31:0] $end
$var reg 32 -# Jimm [31:0] $end
$var reg 5 .# Opcode [6:2] $end
$var reg 32 /# Simm [31:0] $end
$var reg 32 0# Uimm [31:0] $end
$scope begin FormatSelect $end
$upscope $end
$upscope $end
$scope module MEMWBRegsPPC $end
$var wire 1 Q clk $end
$var wire 1 1# en $end
$var wire 32 2# readInstruction [31:0] $end
$var wire 5 3# readRd [4:0] $end
$var wire 1 _ readRegWrite $end
$var wire 1 M rst $end
$var wire 32 4# writeALUOutput [31:0] $end
$var wire 32 5# writeDataOutput [31:0] $end
$var wire 32 6# writeInstruction [31:0] $end
$var wire 1 h writeMemtoReg $end
$var wire 5 7# writeRd [4:0] $end
$var wire 1 [ writeRegWrite $end
$var wire 1 k readMemtoReg $end
$var wire 32 8# readDataOutput [31:0] $end
$var wire 32 9# readALUOutput [31:0] $end
$var reg 32 :# regALUOutput [31:0] $end
$var reg 32 ;# regDataOutput [31:0] $end
$var reg 32 <# regInstruction [31:0] $end
$var reg 1 k regMemtoReg $end
$var reg 5 =# regRd [4:0] $end
$var reg 1 ># regRegWrite $end
$scope begin WriteRegs $end
$upscope $end
$upscope $end
$scope module MainControlPPC $end
$var wire 32 ?# Instruction [31:0] $end
$var wire 7 @# Opcode [6:0] $end
$var wire 1 A# Func7 $end
$var wire 3 B# Func3 [2:0] $end
$var reg 5 C# ALUCtrl [4:0] $end
$var reg 1 0" ALUSrc $end
$var reg 1 ," Branch $end
$var reg 1 p MemRead $end
$var reg 1 l MemWrite $end
$var reg 1 i MemtoReg $end
$var reg 1 \ RegWrite $end
$scope begin OpcodeDecode $end
$upscope $end
$upscope $end
$scope module RegisterFilePPC $end
$var wire 5 D# Rd [4:0] $end
$var wire 32 E# ReadData1 [31:0] $end
$var wire 32 F# ReadData2 [31:0] $end
$var wire 5 G# Rs1 [4:0] $end
$var wire 5 H# Rs2 [4:0] $end
$var wire 32 I# WriteData [31:0] $end
$var wire 1 _ WriteEn $end
$var wire 1 Q clk $end
$var wire 1 M rst $end
$var integer 32 J# i [31:0] $end
$var integer 32 K# idx [31:0] $end
$scope begin WriteBank $end
$upscope $end
$upscope $end
$scope module TextMemoryPPC $end
$var wire 8 L# addr [7:0] $end
$var reg 32 M# data_out [31:0] $end
$upscope $end
$scope begin ProgramCounter $end
$upscope $end
$upscope $end
$upscope $end
$enddefinitions $end
#0
$dumpvars
bx M#
bx L#
b100000 K#
bx J#
bx I#
bx H#
bx G#
bx F#
bx E#
bx D#
bx C#
bx B#
xA#
bx @#
bx ?#
x>#
bx =#
bx <#
bx ;#
bx :#
bx 9#
bx 8#
bx 7#
bx 6#
bx 5#
bx 4#
bx 3#
bx 2#
11#
bx 0#
bx /#
bx .#
bx -#
bx ,#
bx +#
bx *#
bx )#
bx (#
bx '#
bx &#
bx %#
bx $#
bx ##
bx "#
bx !#
x~"
bx }"
bx |"
bx {"
xz"
xy"
xx"
bx w"
bx v"
bx u"
bx t"
bx s"
bx r"
bx q"
bx p"
bx o"
bx n"
bx m"
bx l"
bx k"
bx j"
bx i"
bx h"
bx g"
bx f"
bx e"
1d"
bx c"
bx b"
bx a"
bx `"
bx _"
bx ^"
bx ]"
bx \"
bx ["
bx Z"
bx Y"
bx X"
bx W"
bx V"
bx U"
bx T"
bx S"
xR"
bx Q"
bx P"
xO"
xN"
bx M"
bx L"
bx K"
bx J"
bx I"
bx H"
bx G"
bx F"
bx E"
bx D"
1C"
b1010 B"
bx A"
bx @"
bx ?"
bx >"
bx ="
bx <"
bx ;"
bx :"
bx 9"
bx 8"
bx 7"
bx 6"
bx 5"
bx 4"
bx 3"
bx 2"
x1"
x0"
bx /"
x."
bx -"
x,"
bx +"
bx *"
bx )"
bx ("
bx '"
bx &"
bx %"
bx $"
bx #"
bx ""
bx !"
bx ~
bx }
bx |
bx {
xz
xy
bx x
bx w
bx v
bx u
bx t
bx s
xr
xq
xp
xo
xn
xm
xl
xk
xj
xi
xh
bx g
bx f
bx e
bx d
xc
bx b
bx a
bx `
x_
x^
x]
x\
x[
bx Z
bx Y
xX
bx W
bx V
bx U
bx T
bx S
bx R
0Q
xP
bx O
xN
0M
0L
bx K
bx J
bx I
bx H
bx G
bx F
bx E
bx D
bx C
b10 B
b1 A
bx @
bx ?
bx >
bx =
bx <
bx ;
bx :
bx 9
bx 8
bx 7
bx 6
bx 5
bx 4
bx 3
bx 2
bx 1
bx 0
bx /
bx .
bx -
bx ,
bx +
bx *
bx )
bx (
bx '
bx &
bx %
bx $
bx #
bx "
bx !
$end
#1
0N
0z
0."
0P
0m
0]
b0 3"
b0 >"
b0 q"
b0 C#
0,"
0l
0p
0\
0i
00"
0X
1y
1c
b0 }
b0 ^"
b0 ~
b0 ]"
b0 @#
0A#
b0 B#
b0 `"
b0 a"
b0 b
b0 j"
b0 Y
b0 ["
b0 l"
b0 H#
b0 Z
b0 Z"
b0 k"
b0 G#
b0 f
b0 x
b0 p"
b0 ,#
b0 +#
b0 .#
b0 |
b0 b"
b0 o"
b0 &#
b0 '#
b0 )#
b0 ?#
b0 {
b0 %#
b0 (#
1Q
1L
#2
0Q
0L
#3
b0 !"
b0 X"
b0 ""
b0 W"
bx @#
xA#
bx B#
bx `"
bx a"
bx b
bx j"
bx Y
bx ["
bx l"
bx H#
bx Z
bx Z"
bx k"
bx G#
bx .#
b0 )"
b0 J"
b0 f"
b0 w"
b0 #"
b0 U"
b0 i"
b0 "#
b0 $"
b0 V"
b0 h"
b0 !#
b0 4"
b0 :"
b0 e"
b0 u"
01"
0q
0x"
0n
0y"
0j
0z"
0^
0~"
b0 ("
b0 I"
b0 c"
b0 g"
b0 {"
b0 *"
b0 t"
b0 v"
bx |
bx b"
bx o"
bx &#
bx '#
bx )#
bx ?#
bx f
bx {
bx %#
bx (#
1Q
1L
#4
0Q
0L
#5
b0 +"
b0 @"
b0 5#
b0 t
b0 D"
b0 6#
b0 M"
0r
0o
0N"
0h
0O"
0[
0R"
b0 s
b0 E"
b0 S"
b0 Y"
b0 _"
b0 7#
b0 P"
bx )"
bx J"
bx f"
bx w"
bx #"
bx U"
bx i"
bx "#
bx $"
bx V"
bx h"
bx !#
bx ("
bx I"
bx c"
bx g"
bx {"
1Q
1L
#6
0Q
0L
#7
b0 U
b0 2#
b0 <#
0k
0_
0>#
b0 T
b0 T"
b0 \"
b0 3#
b0 D#
b0 =#
b0 V
b0 8#
b0 ;#
bx t
bx D"
bx 6#
bx M"
bx s
bx E"
bx S"
bx Y"
bx _"
bx 7#
bx P"
1Q
1L
#8
0Q
0L
#9
bx U
bx 2#
bx <#
bx T
bx T"
bx \"
bx 3#
bx D#
bx =#
1Q
1L
#10
b0 @
b0 ?
b0 >
b0 =
b0 <
b0 ;
b0 :
b0 9
b0 8
b0 7
b0 6
b0 5
b0 4
b0 3
b0 2
b0 1
b0 0
b0 /
b0 .
b0 -
b0 ,
b0 +
b0 *
b0 )
b0 (
b0 '
b0 &
b0 %
b0 $
b0 #
b0 "
b0 !
b100000 J#
1N
0Q
0L
1M
#11
b0 K
b0 R
b0 2"
b0 ;"
b0 G"
b0 5"
b0 9"
b0 -"
b0 ="
b0 /"
b0 <"
b1010010010100000011 w
b1010010010100000011 $#
b1010010010100000011 M#
b0 %"
b0 H"
b0 6"
b0 8"
b100 e
b0 L#
b0 S
b0 I#
b0 @#
0A#
b0 B#
b0 `"
b0 a"
b0 b
b0 j"
b0 `
b0 m"
b0 F#
b0 Y
b0 ["
b0 l"
b0 H#
b0 a
b0 n"
b0 E#
b0 Z
b0 Z"
b0 k"
b0 G#
b0 .#
b100 d
b0 g
b0 7"
b0 ##
b0 U
b0 2#
b0 <#
b0 T
b0 T"
b0 \"
b0 3#
b0 D#
b0 =#
b0 W
b0 9#
b0 :#
b0 t
b0 D"
b0 6#
b0 M"
b0 )"
b0 J"
b0 f"
b0 w"
b0 #"
b0 U"
b0 i"
b0 "#
b0 $"
b0 V"
b0 h"
b0 !#
b0 ("
b0 I"
b0 c"
b0 g"
b0 {"
b0 &"
b0 r"
b0 }"
b0 '"
b0 s"
b0 |"
b0 |
b0 b"
b0 o"
b0 &#
b0 '#
b0 )#
b0 ?#
b0 f
b0 {
b0 %#
b0 (#
1Q
1L
#12
b0 @
b0 ?
b0 >
b0 =
b0 <
b0 ;
b0 :
b0 9
b0 8
b0 7
b0 6
b0 5
b0 4
b0 3
b0 2
b0 1
b0 0
b0 /
b0 .
b0 -
b0 ,
b0 +
b0 *
b0 )
b0 (
b0 '
b0 &
b0 %
b0 $
b0 #
b0 "
b0 !
b100000 J#
0Q
0L
#13
b0 ?"
b0 s
b0 E"
b0 S"
b0 Y"
b0 _"
b0 7#
b0 P"
b0 v
b0 A"
b0 F"
b0 Q"
b0 O
b0 u
b0 K"
b0 L"
b0 4#
1Q
1L
#14
b0 @
b0 ?
b0 >
b0 =
b0 <
b0 ;
b0 :
b0 9
b0 8
b0 7
b0 6
b0 5
b0 4
b0 3
b0 2
b0 1
b0 0
b0 /
b0 .
b0 -
b0 ,
b0 +
b0 *
b0 )
b0 (
b0 '
b0 &
b0 %
b0 $
b0 #
b0 "
b0 !
b100000 J#
0Q
0L
#15
1Q
1L
#16
b0 @
b0 ?
b0 >
b0 =
b0 <
b0 ;
b0 :
b0 9
b0 8
b0 7
b0 6
b0 5
b0 4
b0 3
b0 2
b0 1
b0 0
b0 /
b0 .
b0 -
b0 ,
b0 +
b0 *
b0 )
b0 (
b0 '
b0 &
b0 %
b0 $
b0 #
b0 "
b0 !
b100000 J#
0Q
0L
#17
1Q
1L
#18
b0 @
b0 ?
b0 >
b0 =
b0 <
b0 ;
b0 :
b0 9
b0 8
b0 7
b0 6
b0 5
b0 4
b0 3
b0 2
b0 1
b0 0
b0 /
b0 .
b0 -
b0 ,
b0 +
b0 *
b0 )
b0 (
b0 '
b0 &
b0 %
b0 $
b0 #
b0 "
b0 !
b100000 J#
0Q
0L
#19
1Q
1L
#20
0N
0Q
0L
0M
#21
1]
b10001011010010110000011 w
b10001011010010110000011 $#
b10001011010010110000011 M#
1p
1\
1i
10"
b1000 e
b1 L#
b11 @#
b10 B#
b1010 a"
b1010 b
b1010 j"
b1010 Z
b1010 Z"
b1010 k"
b1010 G#
b1000 d
b100 g
b100 7"
b100 ##
b1010010010100000011 |
b1010010010100000011 b"
b1010010010100000011 o"
b1010010010100000011 &#
b1010010010100000011 '#
b1010010010100000011 )#
b1010010010100000011 ?#
1Q
1L
#22
0Q
0L
#23
b101101010000011000110011 w
b101101010000011000110011 $#
b101101010000011000110011 M#
b1100 e
b10 L#
b100 `"
b1011 a"
b1011 b
b1011 j"
b100 Y
b100 ["
b100 l"
b100 H#
b1011 Z
b1011 Z"
b1011 k"
b1011 G#
b100 x
b100 p"
b100 ,#
b100 +#
b1100 d
b1000 g
b1000 7"
b1000 ##
b1010010010100000011 )"
b1010010010100000011 J"
b1010010010100000011 f"
b1010010010100000011 w"
b1010 $"
b1010 V"
b1010 h"
b1010 !#
11"
1q
1x"
1j
1z"
1^
1~"
b1010 ("
b1010 I"
b1010 c"
b1010 g"
b1010 {"
b10001011010010110000011 |
b10001011010010110000011 b"
b10001011010010110000011 o"
b10001011010010110000011 &#
b10001011010010110000011 '#
b10001011010010110000011 )#
b10001011010010110000011 ?#
b1000 f
b100 {
b100 %#
b100 (#
1Q
1L
#24
0Q
0L
#25
b110000101010010000100011 w
b110000101010010000100011 $#
b110000101010010000100011 M#
0]
b100 2"
b100 ;"
b100 G"
0p
0i
00"
b10000 e
b11 L#
b1 +"
b1 @"
b1 5#
b1 ~
b1 ]"
1X
0y
0c
b100 5"
b100 9"
b110011 @#
b0 B#
b1011 `"
b1010 a"
b1100 b
b1100 j"
b1011 Y
b1011 ["
b1011 l"
b1011 H#
b1010 Z
b1010 Z"
b1010 k"
b1010 G#
b0 x
b0 p"
b0 ,#
b1100 .#
b10000 d
b1100 g
b1100 7"
b1100 ##
b1010010010100000011 t
b1010010010100000011 D"
b1010010010100000011 6#
b1010010010100000011 M"
1r
1h
1O"
1[
1R"
b1010 s
b1010 E"
b1010 S"
b1010 Y"
b1010 _"
b1010 7#
b1010 P"
b10001011010010110000011 )"
b10001011010010110000011 J"
b10001011010010110000011 f"
b10001011010010110000011 w"
b100 #"
b100 U"
b100 i"
b100 "#
b1011 $"
b1011 V"
b1011 h"
b1011 !#
b1011 ("
b1011 I"
b1011 c"
b1011 g"
b1011 {"
b100 *"
b100 t"
b100 v"
b101101010000011000110011 |
b101101010000011000110011 b"
b101101010000011000110011 o"
b101101010000011000110011 &#
b101101010000011000110011 '#
b101101010000011000110011 )#
b101101010000011000110011 ?#
b1000 f
b1000 {
b1000 %#
b1000 (#
1Q
1L
#26
0Q
0L
